<?xml version="1.0" encoding="UTF-8" standalone="no"?><svg xmlns="http://www.w3.org/2000/svg" xmlns:xlink="http://www.w3.org/1999/xlink" contentScriptType="application/ecmascript" contentStyleType="text/css" height="156px" preserveAspectRatio="none" style="width:125px;height:156px;" version="1.1" viewBox="0 0 125 156" width="125px" zoomAndPan="magnify"><defs/><g><text fill="#000000" font-family="sans-serif" font-size="14" lengthAdjust="spacing" textLength="0" x="27" y="51.4951"/><line style="stroke:#A80036;stroke-width:1.0;" x1="10" x2="32" y1="56.7969" y2="56.7969"/><text fill="#000000" font-family="sans-serif" font-size="14" lengthAdjust="spacing" textLength="0" x="27" y="71.792"/><line style="stroke:#A80036;stroke-width:1.0;" x1="10" x2="32" y1="77.0938" y2="77.0938"/><text fill="#000000" font-family="sans-serif" font-size="14" lengthAdjust="spacing" textLength="0" x="27" y="92.0889"/><line style="stroke:#A80036;stroke-width:1.0;" x1="10" x2="32" y1="97.3906" y2="97.3906"/><text fill="#000000" font-family="sans-serif" font-size="14" lengthAdjust="spacing" textLength="0" x="27" y="112.3857"/><rect fill="none" height="81.1875" rx="5" ry="5" style="stroke:#A80036;stroke-width:1.5;" width="22" x="10" y="36.5"/><text fill="#000000" font-family="sans-serif" font-size="14" lengthAdjust="spacing" textLength="14" x="85" y="24.9951">-1</text><rect fill="none" height="20.2969" rx="5" ry="5" style="stroke:#A80036;stroke-width:1.5;" width="24" x="80" y="10"/><text fill="#000000" font-family="sans-serif" font-size="14" lengthAdjust="spacing" textLength="18" x="83" y="62.9951">61</text><rect fill="none" height="20.2969" rx="5" ry="5" style="stroke:#A80036;stroke-width:1.5;" width="28" x="78" y="48"/><text fill="#000000" font-family="sans-serif" font-size="14" lengthAdjust="spacing" textLength="32" x="76" y="100.9951">-993</text><rect fill="none" height="20.2969" rx="5" ry="5" style="stroke:#A80036;stroke-width:1.5;" width="42" x="71" y="86"/><text fill="#000000" font-family="sans-serif" font-size="14" lengthAdjust="spacing" textLength="32" x="76" y="138.9951">-994</text><rect fill="none" height="20.2969" rx="5" ry="5" style="stroke:#A80036;stroke-width:1.5;" width="42" x="71" y="124"/><path d="M22,46 L35,46 C48.8178,46 62.9393,39.5032 73.6081,33.0048 " fill="none" style="stroke:#A80036;stroke-width:1.0;stroke-dasharray:3.0,3.0;"/><path d="M75.289,35.5945 L75.5504,31.7441 L71.9271,30.415 L80.0825,28.8024 L75.289,35.5945 " fill="#A80036" style="stroke:#A80036;stroke-width:1.0;"/><ellipse cx="22" cy="46" fill="#A80036" rx="3" ry="3" style="stroke:#A80036;stroke-width:1.0;"/><path d="M22,66 L35,66 C46.8418,66 59.943,64.2559 70.5459,62.3964 " fill="none" style="stroke:#A80036;stroke-width:1.0;stroke-dasharray:3.0,3.0;"/><path d="M71.1129,65.4199 L72.8136,61.9711 L69.9789,59.3728 L78.1048,60.9789 L71.1129,65.4199 " fill="#A80036" style="stroke:#A80036;stroke-width:1.0;"/><ellipse cx="22" cy="66" fill="#A80036" rx="3" ry="3" style="stroke:#A80036;stroke-width:1.0;"/><path d="M22,87 L35,87 C44.5447,87 54.8847,88.2681 64.0781,89.8523 " fill="none" style="stroke:#A80036;stroke-width:1.0;stroke-dasharray:3.0,3.0;"/><path d="M63.5245,92.8164 L66.3012,90.2675 L64.6318,86.8882 L71.4883,91.2365 L63.5245,92.8164 " fill="#A80036" style="stroke:#A80036;stroke-width:1.0;"/><ellipse cx="22" cy="87" fill="#A80036" rx="3" ry="3" style="stroke:#A80036;stroke-width:1.0;"/><path d="M22,107 L35,107 C48.3771,107 61.9477,113.2377 72.4353,119.7168 " fill="none" style="stroke:#A80036;stroke-width:1.0;stroke-dasharray:3.0,3.0;"/><path d="M70.7436,122.2823 L74.3594,120.9856 L74.1271,117.1513 L78.849,123.9462 L70.7436,122.2823 " fill="#A80036" style="stroke:#A80036;stroke-width:1.0;"/><ellipse cx="22" cy="107" fill="#A80036" rx="3" ry="3" style="stroke:#A80036;stroke-width:1.0;"/><!--MD5=[30f99ee5360b97592710754a22a64ed7]
@startjson
[
  [
    -1
  ],
  [
    61
  ],
  [
    -993
  ],
  [
    -994
  ]
]
@endjson

PlantUML version 1.2021.00(Sun Jan 10 10:25:05 UTC 2021)
(GPL source distribution)
Java Runtime: OpenJDK Runtime Environment
JVM: OpenJDK 64-Bit Server VM
Default Encoding: UTF-8
Language: en
Country: US
--></g></svg>